{
	"objects":[
	{
		"name":"Google Maps",
		"pkg":"com.google.android.apps.maps",
		"thumb":"http://placehold.it/100/&text=%20"
	},
	{
		"name":"Keep",
		"pkg":"com.google.android.keep",
		"thumb":"http://placehold.it/100/&text=%20"
	},
	{
		"name":"Play Music",
		"pkg":"com.google.android.music",
		"thumb":"http://placehold.it/100/&text=%20"
	},
	{
		"name":"Hangouts",
		"pkg":"com.google.android.talk",
		"thumb":"http://placehold.it/100/&text=%20"
	},
	{
		"name":"Karaoke",
		"pkg":"com.telibrahma.Karaoke",
		"thumb":"http://placehold.it/100/&text=%20"
	},
	{
		"name":"PointArt",
		"pkg":"com.teli.intaract",
		"thumb":"http://placehold.it/100/&text=%20"
	}
	]
}